<?xml version="1.0" encoding="UTF-8"?>
<!-- Do not edit this file with editors other than diagrams.net -->
<!DOCTYPE svg PUBLIC "-//W3C//DTD SVG 1.1//EN" "http://www.w3.org/Graphics/SVG/1.1/DTD/svg11.dtd">
<svg xmlns="http://www.w3.org/2000/svg" xmlns:xlink="http://www.w3.org/1999/xlink" version="1.1" width="1311px" height="862px" viewBox="-0.5 -0.5 1311 862" content="&lt;mxfile host=&quot;app.diagrams.net&quot; modified=&quot;2023-03-27T18:35:21.739Z&quot; agent=&quot;Mozilla/5.0 (Windows NT 10.0; Win64; x64) AppleWebKit/537.36 (KHTML, like Gecko) Chrome/109.0.0.0 Safari/537.36&quot; etag=&quot;2yL_8yiVl--E0nMDIdVl&quot; version=&quot;21.1.1&quot; type=&quot;device&quot;&gt;&#10;  &lt;diagram name=&quot;Страница 1&quot; id=&quot;HdrLyrstsdvIOBAPuRc9&quot;&gt;&#10;    &lt;mxGraphModel dx=&quot;687&quot; dy=&quot;341&quot; grid=&quot;1&quot; gridSize=&quot;10&quot; guides=&quot;1&quot; tooltips=&quot;1&quot; connect=&quot;1&quot; arrows=&quot;1&quot; fold=&quot;1&quot; page=&quot;1&quot; pageScale=&quot;1&quot; pageWidth=&quot;1600&quot; pageHeight=&quot;900&quot; math=&quot;0&quot; shadow=&quot;0&quot;&gt;&#10;      &lt;root&gt;&#10;        &lt;mxCell id=&quot;0&quot; /&gt;&#10;        &lt;mxCell id=&quot;1&quot; parent=&quot;0&quot; /&gt;&#10;        &lt;mxCell id=&quot;vbQgPj4sqMXoWMASI0Q5-1&quot; value=&quot;&quot; style=&quot;rounded=0;whiteSpace=wrap;html=1;&quot; vertex=&quot;1&quot; parent=&quot;1&quot;&gt;&#10;          &lt;mxGeometry x=&quot;130&quot; y=&quot;160&quot; width=&quot;510&quot; height=&quot;320&quot; as=&quot;geometry&quot; /&gt;&#10;        &lt;/mxCell&gt;&#10;        &lt;mxCell id=&quot;vbQgPj4sqMXoWMASI0Q5-5&quot; value=&quot;&quot; style=&quot;rounded=0;whiteSpace=wrap;html=1;&quot; vertex=&quot;1&quot; parent=&quot;1&quot;&gt;&#10;          &lt;mxGeometry x=&quot;510&quot; y=&quot;560&quot; width=&quot;510&quot; height=&quot;320&quot; as=&quot;geometry&quot; /&gt;&#10;        &lt;/mxCell&gt;&#10;        &lt;mxCell id=&quot;vbQgPj4sqMXoWMASI0Q5-6&quot; value=&quot;&quot; style=&quot;rounded=0;whiteSpace=wrap;html=1;&quot; vertex=&quot;1&quot; parent=&quot;1&quot;&gt;&#10;          &lt;mxGeometry x=&quot;930&quot; y=&quot;160&quot; width=&quot;510&quot; height=&quot;320&quot; as=&quot;geometry&quot; /&gt;&#10;        &lt;/mxCell&gt;&#10;        &lt;mxCell id=&quot;vbQgPj4sqMXoWMASI0Q5-7&quot; value=&quot;Игрок 1&quot; style=&quot;shape=umlActor;verticalLabelPosition=bottom;verticalAlign=top;html=1;outlineConnect=0;&quot; vertex=&quot;1&quot; parent=&quot;1&quot;&gt;&#10;          &lt;mxGeometry x=&quot;340&quot; y=&quot;20&quot; width=&quot;30&quot; height=&quot;60&quot; as=&quot;geometry&quot; /&gt;&#10;        &lt;/mxCell&gt;&#10;        &lt;mxCell id=&quot;vbQgPj4sqMXoWMASI0Q5-12&quot; value=&quot;Игрок 2&quot; style=&quot;shape=umlActor;verticalLabelPosition=bottom;verticalAlign=top;html=1;outlineConnect=0;&quot; vertex=&quot;1&quot; parent=&quot;1&quot;&gt;&#10;          &lt;mxGeometry x=&quot;1070&quot; y=&quot;20&quot; width=&quot;30&quot; height=&quot;60&quot; as=&quot;geometry&quot; /&gt;&#10;        &lt;/mxCell&gt;&#10;        &lt;mxCell id=&quot;vbQgPj4sqMXoWMASI0Q5-13&quot; value=&quot;Хранит учётные данные и рейтинг пользователей, данные сыгранных партий. Чаты с сообщениями. Выдаёт и обновляет всё это по запросу.&quot; style=&quot;shape=cylinder3;whiteSpace=wrap;html=1;boundedLbl=1;backgroundOutline=1;size=15;&quot; vertex=&quot;1&quot; parent=&quot;1&quot;&gt;&#10;          &lt;mxGeometry x=&quot;1210&quot; y=&quot;560&quot; width=&quot;220&quot; height=&quot;300&quot; as=&quot;geometry&quot; /&gt;&#10;        &lt;/mxCell&gt;&#10;        &lt;mxCell id=&quot;vbQgPj4sqMXoWMASI0Q5-14&quot; value=&quot;&amp;lt;b&amp;gt;Базы данных&amp;lt;/b&amp;gt;&quot; style=&quot;text;html=1;strokeColor=none;fillColor=none;align=center;verticalAlign=middle;whiteSpace=wrap;rounded=0;&quot; vertex=&quot;1&quot; parent=&quot;1&quot;&gt;&#10;          &lt;mxGeometry x=&quot;1275&quot; y=&quot;600&quot; width=&quot;90&quot; height=&quot;30&quot; as=&quot;geometry&quot; /&gt;&#10;        &lt;/mxCell&gt;&#10;        &lt;mxCell id=&quot;vbQgPj4sqMXoWMASI0Q5-16&quot; value=&quot;Локальное &amp;lt;b&amp;gt;хранилище&amp;lt;/b&amp;gt;:&amp;lt;br&amp;gt;сессии; id текущей партии; id оппонента; время начала партии&amp;amp;nbsp;&quot; style=&quot;rounded=0;whiteSpace=wrap;html=1;&quot; vertex=&quot;1&quot; parent=&quot;1&quot;&gt;&#10;          &lt;mxGeometry x=&quot;160&quot; y=&quot;340&quot; width=&quot;150&quot; height=&quot;110&quot; as=&quot;geometry&quot; /&gt;&#10;        &lt;/mxCell&gt;&#10;        &lt;mxCell id=&quot;vbQgPj4sqMXoWMASI0Q5-17&quot; value=&quot;&amp;lt;b&amp;gt;Отрисовщик&amp;lt;/b&amp;gt;: игровой доски, чата, имён оппонентов и их символов; итога игры&quot; style=&quot;rounded=0;whiteSpace=wrap;html=1;&quot; vertex=&quot;1&quot; parent=&quot;1&quot;&gt;&#10;          &lt;mxGeometry x=&quot;160&quot; y=&quot;180&quot; width=&quot;150&quot; height=&quot;110&quot; as=&quot;geometry&quot; /&gt;&#10;        &lt;/mxCell&gt;&#10;        &lt;mxCell id=&quot;vbQgPj4sqMXoWMASI0Q5-19&quot; value=&quot;&amp;lt;b&amp;gt;Преобразователь&amp;lt;/b&amp;gt;:&amp;lt;br&amp;gt;нажатий на клетки - в коды ходов; набранных в чате сообщений - в структурированный формат&quot; style=&quot;rounded=0;whiteSpace=wrap;html=1;&quot; vertex=&quot;1&quot; parent=&quot;1&quot;&gt;&#10;          &lt;mxGeometry x=&quot;420&quot; y=&quot;180&quot; width=&quot;140&quot; height=&quot;110&quot; as=&quot;geometry&quot; /&gt;&#10;        &lt;/mxCell&gt;&#10;        &lt;mxCell id=&quot;vbQgPj4sqMXoWMASI0Q5-20&quot; value=&quot;&amp;lt;b&amp;gt;Связист&amp;lt;/b&amp;gt;:&amp;lt;br&amp;gt;&amp;amp;nbsp;держит связь с сервером. А через сервер и особые технологии - с другим игроком&quot; style=&quot;rounded=0;whiteSpace=wrap;html=1;&quot; vertex=&quot;1&quot; parent=&quot;1&quot;&gt;&#10;          &lt;mxGeometry x=&quot;420&quot; y=&quot;340&quot; width=&quot;140&quot; height=&quot;110&quot; as=&quot;geometry&quot; /&gt;&#10;        &lt;/mxCell&gt;&#10;        &lt;mxCell id=&quot;vbQgPj4sqMXoWMASI0Q5-21&quot; value=&quot;&quot; style=&quot;endArrow=classic;html=1;rounded=0;&quot; edge=&quot;1&quot; parent=&quot;1&quot;&gt;&#10;          &lt;mxGeometry width=&quot;50&quot; height=&quot;50&quot; relative=&quot;1&quot; as=&quot;geometry&quot;&gt;&#10;            &lt;mxPoint x=&quot;390&quot; y=&quot;90&quot; as=&quot;sourcePoint&quot; /&gt;&#10;            &lt;mxPoint x=&quot;460&quot; y=&quot;140&quot; as=&quot;targetPoint&quot; /&gt;&#10;          &lt;/mxGeometry&gt;&#10;        &lt;/mxCell&gt;&#10;        &lt;mxCell id=&quot;vbQgPj4sqMXoWMASI0Q5-23&quot; value=&quot;Ввод&quot; style=&quot;edgeLabel;html=1;align=center;verticalAlign=middle;resizable=0;points=[];&quot; vertex=&quot;1&quot; connectable=&quot;0&quot; parent=&quot;vbQgPj4sqMXoWMASI0Q5-21&quot;&gt;&#10;          &lt;mxGeometry x=&quot;0.3949&quot; relative=&quot;1&quot; as=&quot;geometry&quot;&gt;&#10;            &lt;mxPoint as=&quot;offset&quot; /&gt;&#10;          &lt;/mxGeometry&gt;&#10;        &lt;/mxCell&gt;&#10;        &lt;mxCell id=&quot;vbQgPj4sqMXoWMASI0Q5-24&quot; value=&quot;&quot; style=&quot;endArrow=classic;html=1;rounded=0;&quot; edge=&quot;1&quot; parent=&quot;1&quot;&gt;&#10;          &lt;mxGeometry width=&quot;50&quot; height=&quot;50&quot; relative=&quot;1&quot; as=&quot;geometry&quot;&gt;&#10;            &lt;mxPoint x=&quot;270&quot; y=&quot;150&quot; as=&quot;sourcePoint&quot; /&gt;&#10;            &lt;mxPoint x=&quot;320&quot; y=&quot;100&quot; as=&quot;targetPoint&quot; /&gt;&#10;          &lt;/mxGeometry&gt;&#10;        &lt;/mxCell&gt;&#10;        &lt;mxCell id=&quot;vbQgPj4sqMXoWMASI0Q5-25&quot; value=&quot;Вывод&quot; style=&quot;edgeLabel;html=1;align=center;verticalAlign=middle;resizable=0;points=[];&quot; vertex=&quot;1&quot; connectable=&quot;0&quot; parent=&quot;vbQgPj4sqMXoWMASI0Q5-24&quot;&gt;&#10;          &lt;mxGeometry x=&quot;-0.1449&quot; relative=&quot;1&quot; as=&quot;geometry&quot;&gt;&#10;            &lt;mxPoint as=&quot;offset&quot; /&gt;&#10;          &lt;/mxGeometry&gt;&#10;        &lt;/mxCell&gt;&#10;        &lt;mxCell id=&quot;vbQgPj4sqMXoWMASI0Q5-28&quot; value=&quot;Б Р А У З Е Р&quot; style=&quot;text;html=1;strokeColor=none;fillColor=none;align=center;verticalAlign=middle;whiteSpace=wrap;rounded=0;&quot; vertex=&quot;1&quot; parent=&quot;1&quot;&gt;&#10;          &lt;mxGeometry x=&quot;310&quot; y=&quot;130&quot; width=&quot;105&quot; height=&quot;30&quot; as=&quot;geometry&quot; /&gt;&#10;        &lt;/mxCell&gt;&#10;        &lt;mxCell id=&quot;vbQgPj4sqMXoWMASI0Q5-29&quot; value=&quot;Б Р А У З Е Р&quot; style=&quot;text;html=1;strokeColor=none;fillColor=none;align=center;verticalAlign=middle;whiteSpace=wrap;rounded=0;&quot; vertex=&quot;1&quot; parent=&quot;1&quot;&gt;&#10;          &lt;mxGeometry x=&quot;1120&quot; y=&quot;130&quot; width=&quot;105&quot; height=&quot;30&quot; as=&quot;geometry&quot; /&gt;&#10;        &lt;/mxCell&gt;&#10;        &lt;mxCell id=&quot;vbQgPj4sqMXoWMASI0Q5-33&quot; value=&quot;&quot; style=&quot;endArrow=classic;startArrow=classic;html=1;rounded=0;exitX=0;exitY=0;exitDx=0;exitDy=0;&quot; edge=&quot;1&quot; parent=&quot;1&quot; source=&quot;vbQgPj4sqMXoWMASI0Q5-34&quot;&gt;&#10;          &lt;mxGeometry width=&quot;50&quot; height=&quot;50&quot; relative=&quot;1&quot; as=&quot;geometry&quot;&gt;&#10;            &lt;mxPoint x=&quot;560&quot; y=&quot;520&quot; as=&quot;sourcePoint&quot; /&gt;&#10;            &lt;mxPoint x=&quot;540&quot; y=&quot;460&quot; as=&quot;targetPoint&quot; /&gt;&#10;          &lt;/mxGeometry&gt;&#10;        &lt;/mxCell&gt;&#10;        &lt;mxCell id=&quot;vbQgPj4sqMXoWMASI0Q5-34&quot; value=&quot;&amp;lt;b&amp;gt;Связист&amp;lt;/b&amp;gt;:&amp;lt;br&amp;gt;&amp;amp;nbsp;держит связь с браузерами обоих пользователей&quot; style=&quot;rounded=0;whiteSpace=wrap;html=1;&quot; vertex=&quot;1&quot; parent=&quot;1&quot;&gt;&#10;          &lt;mxGeometry x=&quot;700&quot; y=&quot;580&quot; width=&quot;115&quot; height=&quot;80&quot; as=&quot;geometry&quot; /&gt;&#10;        &lt;/mxCell&gt;&#10;        &lt;mxCell id=&quot;vbQgPj4sqMXoWMASI0Q5-36&quot; value=&quot;&quot; style=&quot;endArrow=classic;html=1;rounded=0;exitX=0.5;exitY=1;exitDx=0;exitDy=0;&quot; edge=&quot;1&quot; parent=&quot;1&quot; source=&quot;vbQgPj4sqMXoWMASI0Q5-19&quot; target=&quot;vbQgPj4sqMXoWMASI0Q5-20&quot;&gt;&#10;          &lt;mxGeometry width=&quot;50&quot; height=&quot;50&quot; relative=&quot;1&quot; as=&quot;geometry&quot;&gt;&#10;            &lt;mxPoint x=&quot;360&quot; y=&quot;340&quot; as=&quot;sourcePoint&quot; /&gt;&#10;            &lt;mxPoint x=&quot;410&quot; y=&quot;290&quot; as=&quot;targetPoint&quot; /&gt;&#10;          &lt;/mxGeometry&gt;&#10;        &lt;/mxCell&gt;&#10;        &lt;mxCell id=&quot;vbQgPj4sqMXoWMASI0Q5-38&quot; value=&quot;&quot; style=&quot;endArrow=classic;html=1;rounded=0;entryX=1;entryY=1;entryDx=0;entryDy=0;exitX=0;exitY=0;exitDx=0;exitDy=0;&quot; edge=&quot;1&quot; parent=&quot;1&quot; source=&quot;vbQgPj4sqMXoWMASI0Q5-20&quot; target=&quot;vbQgPj4sqMXoWMASI0Q5-17&quot;&gt;&#10;          &lt;mxGeometry width=&quot;50&quot; height=&quot;50&quot; relative=&quot;1&quot; as=&quot;geometry&quot;&gt;&#10;            &lt;mxPoint x=&quot;340&quot; y=&quot;320&quot; as=&quot;sourcePoint&quot; /&gt;&#10;            &lt;mxPoint x=&quot;390&quot; y=&quot;270&quot; as=&quot;targetPoint&quot; /&gt;&#10;          &lt;/mxGeometry&gt;&#10;        &lt;/mxCell&gt;&#10;        &lt;mxCell id=&quot;vbQgPj4sqMXoWMASI0Q5-40&quot; value=&quot;Здесь всё то же, что и у Игрока 1 ...&quot; style=&quot;text;html=1;strokeColor=none;fillColor=none;align=center;verticalAlign=middle;whiteSpace=wrap;rounded=0;&quot; vertex=&quot;1&quot; parent=&quot;1&quot;&gt;&#10;          &lt;mxGeometry x=&quot;1070&quot; y=&quot;305&quot; width=&quot;210&quot; height=&quot;30&quot; as=&quot;geometry&quot; /&gt;&#10;        &lt;/mxCell&gt;&#10;        &lt;mxCell id=&quot;vbQgPj4sqMXoWMASI0Q5-41&quot; value=&quot;С Е Р В Е Р&quot; style=&quot;text;html=1;strokeColor=none;fillColor=none;align=center;verticalAlign=middle;whiteSpace=wrap;rounded=0;&quot; vertex=&quot;1&quot; parent=&quot;1&quot;&gt;&#10;          &lt;mxGeometry x=&quot;728&quot; y=&quot;530&quot; width=&quot;82&quot; height=&quot;30&quot; as=&quot;geometry&quot; /&gt;&#10;        &lt;/mxCell&gt;&#10;        &lt;mxCell id=&quot;vbQgPj4sqMXoWMASI0Q5-42&quot; value=&quot;&quot; style=&quot;endArrow=classic;startArrow=classic;html=1;rounded=0;entryX=0;entryY=1;entryDx=0;entryDy=0;&quot; edge=&quot;1&quot; parent=&quot;1&quot; target=&quot;vbQgPj4sqMXoWMASI0Q5-6&quot;&gt;&#10;          &lt;mxGeometry width=&quot;50&quot; height=&quot;50&quot; relative=&quot;1&quot; as=&quot;geometry&quot;&gt;&#10;            &lt;mxPoint x=&quot;810&quot; y=&quot;580&quot; as=&quot;sourcePoint&quot; /&gt;&#10;            &lt;mxPoint x=&quot;860&quot; y=&quot;530&quot; as=&quot;targetPoint&quot; /&gt;&#10;          &lt;/mxGeometry&gt;&#10;        &lt;/mxCell&gt;&#10;        &lt;mxCell id=&quot;vbQgPj4sqMXoWMASI0Q5-43&quot; value=&quot;&amp;lt;b&amp;gt;Логинщик&amp;lt;/b&amp;gt;: проверяет введённые учётные данные; раздаёт временные пропуска (сессии)&quot; style=&quot;rounded=0;whiteSpace=wrap;html=1;&quot; vertex=&quot;1&quot; parent=&quot;1&quot;&gt;&#10;          &lt;mxGeometry x=&quot;850&quot; y=&quot;580&quot; width=&quot;130&quot; height=&quot;80&quot; as=&quot;geometry&quot; /&gt;&#10;        &lt;/mxCell&gt;&#10;        &lt;mxCell id=&quot;vbQgPj4sqMXoWMASI0Q5-45&quot; value=&quot;&quot; style=&quot;endArrow=classic;startArrow=classic;html=1;rounded=0;entryX=-0.015;entryY=0.353;entryDx=0;entryDy=0;entryPerimeter=0;exitX=1;exitY=0.5;exitDx=0;exitDy=0;&quot; edge=&quot;1&quot; parent=&quot;1&quot; source=&quot;vbQgPj4sqMXoWMASI0Q5-43&quot; target=&quot;vbQgPj4sqMXoWMASI0Q5-13&quot;&gt;&#10;          &lt;mxGeometry width=&quot;50&quot; height=&quot;50&quot; relative=&quot;1&quot; as=&quot;geometry&quot;&gt;&#10;            &lt;mxPoint x=&quot;1060&quot; y=&quot;680&quot; as=&quot;sourcePoint&quot; /&gt;&#10;            &lt;mxPoint x=&quot;1110&quot; y=&quot;630&quot; as=&quot;targetPoint&quot; /&gt;&#10;          &lt;/mxGeometry&gt;&#10;        &lt;/mxCell&gt;&#10;        &lt;mxCell id=&quot;vbQgPj4sqMXoWMASI0Q5-46&quot; value=&quot;&quot; style=&quot;endArrow=classic;startArrow=classic;html=1;rounded=0;&quot; edge=&quot;1&quot; parent=&quot;1&quot;&gt;&#10;          &lt;mxGeometry width=&quot;50&quot; height=&quot;50&quot; relative=&quot;1&quot; as=&quot;geometry&quot;&gt;&#10;            &lt;mxPoint x=&quot;820&quot; y=&quot;630&quot; as=&quot;sourcePoint&quot; /&gt;&#10;            &lt;mxPoint x=&quot;850&quot; y=&quot;630&quot; as=&quot;targetPoint&quot; /&gt;&#10;          &lt;/mxGeometry&gt;&#10;        &lt;/mxCell&gt;&#10;        &lt;mxCell id=&quot;vbQgPj4sqMXoWMASI0Q5-47&quot; value=&quot;&quot; style=&quot;endArrow=classic;html=1;rounded=0;entryX=0.5;entryY=1;entryDx=0;entryDy=0;exitX=0.5;exitY=0;exitDx=0;exitDy=0;&quot; edge=&quot;1&quot; parent=&quot;1&quot; source=&quot;vbQgPj4sqMXoWMASI0Q5-16&quot; target=&quot;vbQgPj4sqMXoWMASI0Q5-17&quot;&gt;&#10;          &lt;mxGeometry width=&quot;50&quot; height=&quot;50&quot; relative=&quot;1&quot; as=&quot;geometry&quot;&gt;&#10;            &lt;mxPoint x=&quot;220&quot; y=&quot;360&quot; as=&quot;sourcePoint&quot; /&gt;&#10;            &lt;mxPoint x=&quot;270&quot; y=&quot;310&quot; as=&quot;targetPoint&quot; /&gt;&#10;          &lt;/mxGeometry&gt;&#10;        &lt;/mxCell&gt;&#10;        &lt;mxCell id=&quot;vbQgPj4sqMXoWMASI0Q5-48&quot; value=&quot;&quot; style=&quot;endArrow=classic;startArrow=classic;html=1;rounded=0;entryX=0;entryY=0.5;entryDx=0;entryDy=0;exitX=1;exitY=0.5;exitDx=0;exitDy=0;&quot; edge=&quot;1&quot; parent=&quot;1&quot; source=&quot;vbQgPj4sqMXoWMASI0Q5-16&quot; target=&quot;vbQgPj4sqMXoWMASI0Q5-20&quot;&gt;&#10;          &lt;mxGeometry width=&quot;50&quot; height=&quot;50&quot; relative=&quot;1&quot; as=&quot;geometry&quot;&gt;&#10;            &lt;mxPoint x=&quot;340&quot; y=&quot;420&quot; as=&quot;sourcePoint&quot; /&gt;&#10;            &lt;mxPoint x=&quot;390&quot; y=&quot;370&quot; as=&quot;targetPoint&quot; /&gt;&#10;          &lt;/mxGeometry&gt;&#10;        &lt;/mxCell&gt;&#10;        &lt;mxCell id=&quot;vbQgPj4sqMXoWMASI0Q5-49&quot; value=&quot;&amp;lt;b&amp;gt;Распорядитель игрового зала&amp;lt;/b&amp;gt;: кто свободен; кто кому предложил сыграть, кто согласился&quot; style=&quot;rounded=0;whiteSpace=wrap;html=1;&quot; vertex=&quot;1&quot; parent=&quot;1&quot;&gt;&#10;          &lt;mxGeometry x=&quot;700&quot; y=&quot;700&quot; width=&quot;130&quot; height=&quot;80&quot; as=&quot;geometry&quot; /&gt;&#10;        &lt;/mxCell&gt;&#10;        &lt;mxCell id=&quot;vbQgPj4sqMXoWMASI0Q5-50&quot; value=&quot;&quot; style=&quot;endArrow=classic;html=1;rounded=0;entryX=0.5;entryY=0;entryDx=0;entryDy=0;exitX=0.5;exitY=1;exitDx=0;exitDy=0;&quot; edge=&quot;1&quot; parent=&quot;1&quot; source=&quot;vbQgPj4sqMXoWMASI0Q5-43&quot; target=&quot;vbQgPj4sqMXoWMASI0Q5-49&quot;&gt;&#10;          &lt;mxGeometry width=&quot;50&quot; height=&quot;50&quot; relative=&quot;1&quot; as=&quot;geometry&quot;&gt;&#10;            &lt;mxPoint x=&quot;770&quot; y=&quot;730&quot; as=&quot;sourcePoint&quot; /&gt;&#10;            &lt;mxPoint x=&quot;820&quot; y=&quot;680&quot; as=&quot;targetPoint&quot; /&gt;&#10;          &lt;/mxGeometry&gt;&#10;        &lt;/mxCell&gt;&#10;        &lt;mxCell id=&quot;vbQgPj4sqMXoWMASI0Q5-51&quot; value=&quot;&quot; style=&quot;endArrow=classic;startArrow=classic;html=1;rounded=0;exitX=0.437;exitY=-0.03;exitDx=0;exitDy=0;exitPerimeter=0;entryX=0.5;entryY=1;entryDx=0;entryDy=0;&quot; edge=&quot;1&quot; parent=&quot;1&quot; source=&quot;vbQgPj4sqMXoWMASI0Q5-49&quot; target=&quot;vbQgPj4sqMXoWMASI0Q5-34&quot;&gt;&#10;          &lt;mxGeometry width=&quot;50&quot; height=&quot;50&quot; relative=&quot;1&quot; as=&quot;geometry&quot;&gt;&#10;            &lt;mxPoint x=&quot;730&quot; y=&quot;710&quot; as=&quot;sourcePoint&quot; /&gt;&#10;            &lt;mxPoint x=&quot;780&quot; y=&quot;660&quot; as=&quot;targetPoint&quot; /&gt;&#10;          &lt;/mxGeometry&gt;&#10;        &lt;/mxCell&gt;&#10;        &lt;mxCell id=&quot;vbQgPj4sqMXoWMASI0Q5-52&quot; value=&quot;&quot; style=&quot;endArrow=classic;startArrow=classic;html=1;rounded=0;exitX=1;exitY=0.5;exitDx=0;exitDy=0;entryX=-0.02;entryY=0.536;entryDx=0;entryDy=0;entryPerimeter=0;&quot; edge=&quot;1&quot; parent=&quot;1&quot; source=&quot;vbQgPj4sqMXoWMASI0Q5-49&quot; target=&quot;vbQgPj4sqMXoWMASI0Q5-13&quot;&gt;&#10;          &lt;mxGeometry width=&quot;50&quot; height=&quot;50&quot; relative=&quot;1&quot; as=&quot;geometry&quot;&gt;&#10;            &lt;mxPoint x=&quot;830&quot; y=&quot;760&quot; as=&quot;sourcePoint&quot; /&gt;&#10;            &lt;mxPoint x=&quot;880&quot; y=&quot;710&quot; as=&quot;targetPoint&quot; /&gt;&#10;          &lt;/mxGeometry&gt;&#10;        &lt;/mxCell&gt;&#10;        &lt;mxCell id=&quot;vbQgPj4sqMXoWMASI0Q5-53&quot; value=&quot;&amp;lt;b&amp;gt;Оператор конкретной партии&amp;lt;/b&amp;gt; (по количеству играемых в данный момент партий): принимает ходы; обрабатывает ситуацию на доске; передаёт очерёдность хода; объявляет о завершении и итоге; обновляет базы данных по итогу партии&quot; style=&quot;rounded=0;whiteSpace=wrap;html=1;&quot; vertex=&quot;1&quot; parent=&quot;1&quot;&gt;&#10;          &lt;mxGeometry x=&quot;540&quot; y=&quot;570&quot; width=&quot;100&quot; height=&quot;260&quot; as=&quot;geometry&quot; /&gt;&#10;        &lt;/mxCell&gt;&#10;        &lt;mxCell id=&quot;vbQgPj4sqMXoWMASI0Q5-54&quot; value=&quot;&quot; style=&quot;endArrow=classic;html=1;rounded=0;entryX=1.023;entryY=0.608;entryDx=0;entryDy=0;entryPerimeter=0;&quot; edge=&quot;1&quot; parent=&quot;1&quot; source=&quot;vbQgPj4sqMXoWMASI0Q5-49&quot; target=&quot;vbQgPj4sqMXoWMASI0Q5-53&quot;&gt;&#10;          &lt;mxGeometry width=&quot;50&quot; height=&quot;50&quot; relative=&quot;1&quot; as=&quot;geometry&quot;&gt;&#10;            &lt;mxPoint x=&quot;680&quot; y=&quot;840&quot; as=&quot;sourcePoint&quot; /&gt;&#10;            &lt;mxPoint x=&quot;730&quot; y=&quot;790&quot; as=&quot;targetPoint&quot; /&gt;&#10;          &lt;/mxGeometry&gt;&#10;        &lt;/mxCell&gt;&#10;        &lt;mxCell id=&quot;vbQgPj4sqMXoWMASI0Q5-55&quot; value=&quot;&quot; style=&quot;endArrow=classic;startArrow=classic;html=1;rounded=0;entryX=0;entryY=0.5;entryDx=0;entryDy=0;exitX=1.004;exitY=0.314;exitDx=0;exitDy=0;exitPerimeter=0;&quot; edge=&quot;1&quot; parent=&quot;1&quot; source=&quot;vbQgPj4sqMXoWMASI0Q5-53&quot; target=&quot;vbQgPj4sqMXoWMASI0Q5-34&quot;&gt;&#10;          &lt;mxGeometry width=&quot;50&quot; height=&quot;50&quot; relative=&quot;1&quot; as=&quot;geometry&quot;&gt;&#10;            &lt;mxPoint x=&quot;650&quot; y=&quot;660&quot; as=&quot;sourcePoint&quot; /&gt;&#10;            &lt;mxPoint x=&quot;700&quot; y=&quot;610&quot; as=&quot;targetPoint&quot; /&gt;&#10;          &lt;/mxGeometry&gt;&#10;        &lt;/mxCell&gt;&#10;        &lt;mxCell id=&quot;vbQgPj4sqMXoWMASI0Q5-56&quot; value=&quot;&quot; style=&quot;endArrow=classic;startArrow=classic;html=1;rounded=0;exitX=1.014;exitY=0.939;exitDx=0;exitDy=0;exitPerimeter=0;entryX=-0.011;entryY=0.863;entryDx=0;entryDy=0;entryPerimeter=0;&quot; edge=&quot;1&quot; parent=&quot;1&quot; source=&quot;vbQgPj4sqMXoWMASI0Q5-53&quot; target=&quot;vbQgPj4sqMXoWMASI0Q5-13&quot;&gt;&#10;          &lt;mxGeometry width=&quot;50&quot; height=&quot;50&quot; relative=&quot;1&quot; as=&quot;geometry&quot;&gt;&#10;            &lt;mxPoint x=&quot;650&quot; y=&quot;800&quot; as=&quot;sourcePoint&quot; /&gt;&#10;            &lt;mxPoint x=&quot;1160&quot; y=&quot;760&quot; as=&quot;targetPoint&quot; /&gt;&#10;          &lt;/mxGeometry&gt;&#10;        &lt;/mxCell&gt;&#10;        &lt;mxCell id=&quot;vbQgPj4sqMXoWMASI0Q5-58&quot; value=&quot;Обработчик &amp;lt;b&amp;gt;сообщений&amp;lt;/b&amp;gt;&quot; style=&quot;rounded=0;whiteSpace=wrap;html=1;&quot; vertex=&quot;1&quot; parent=&quot;1&quot;&gt;&#10;          &lt;mxGeometry x=&quot;920&quot; y=&quot;750&quot; width=&quot;70&quot; height=&quot;40&quot; as=&quot;geometry&quot; /&gt;&#10;        &lt;/mxCell&gt;&#10;        &lt;mxCell id=&quot;vbQgPj4sqMXoWMASI0Q5-59&quot; value=&quot;&quot; style=&quot;endArrow=classic;startArrow=classic;html=1;rounded=0;entryX=1;entryY=0.75;entryDx=0;entryDy=0;&quot; edge=&quot;1&quot; parent=&quot;1&quot; source=&quot;vbQgPj4sqMXoWMASI0Q5-58&quot; target=&quot;vbQgPj4sqMXoWMASI0Q5-34&quot;&gt;&#10;          &lt;mxGeometry width=&quot;50&quot; height=&quot;50&quot; relative=&quot;1&quot; as=&quot;geometry&quot;&gt;&#10;            &lt;mxPoint x=&quot;890&quot; y=&quot;740&quot; as=&quot;sourcePoint&quot; /&gt;&#10;            &lt;mxPoint x=&quot;940&quot; y=&quot;690&quot; as=&quot;targetPoint&quot; /&gt;&#10;          &lt;/mxGeometry&gt;&#10;        &lt;/mxCell&gt;&#10;        &lt;mxCell id=&quot;vbQgPj4sqMXoWMASI0Q5-60&quot; value=&quot;&quot; style=&quot;endArrow=classic;startArrow=classic;html=1;rounded=0;entryX=-0.007;entryY=0.677;entryDx=0;entryDy=0;entryPerimeter=0;&quot; edge=&quot;1&quot; parent=&quot;1&quot; source=&quot;vbQgPj4sqMXoWMASI0Q5-58&quot; target=&quot;vbQgPj4sqMXoWMASI0Q5-13&quot;&gt;&#10;          &lt;mxGeometry width=&quot;50&quot; height=&quot;50&quot; relative=&quot;1&quot; as=&quot;geometry&quot;&gt;&#10;            &lt;mxPoint x=&quot;990&quot; y=&quot;840&quot; as=&quot;sourcePoint&quot; /&gt;&#10;            &lt;mxPoint x=&quot;1040&quot; y=&quot;790&quot; as=&quot;targetPoint&quot; /&gt;&#10;          &lt;/mxGeometry&gt;&#10;        &lt;/mxCell&gt;&#10;        &lt;mxCell id=&quot;vbQgPj4sqMXoWMASI0Q5-61&quot; value=&quot;Обработчик страниц &amp;lt;b&amp;gt;рейтинга&amp;lt;/b&amp;gt; игроков и сыгранных партий&quot; style=&quot;rounded=0;whiteSpace=wrap;html=1;&quot; vertex=&quot;1&quot; parent=&quot;1&quot;&gt;&#10;          &lt;mxGeometry x=&quot;850&quot; y=&quot;820&quot; width=&quot;120&quot; height=&quot;60&quot; as=&quot;geometry&quot; /&gt;&#10;        &lt;/mxCell&gt;&#10;        &lt;mxCell id=&quot;vbQgPj4sqMXoWMASI0Q5-62&quot; value=&quot;&quot; style=&quot;endArrow=classic;startArrow=classic;html=1;rounded=0;exitX=1;exitY=0.5;exitDx=0;exitDy=0;entryX=-0.007;entryY=0.922;entryDx=0;entryDy=0;entryPerimeter=0;&quot; edge=&quot;1&quot; parent=&quot;1&quot; source=&quot;vbQgPj4sqMXoWMASI0Q5-61&quot; target=&quot;vbQgPj4sqMXoWMASI0Q5-13&quot;&gt;&#10;          &lt;mxGeometry width=&quot;50&quot; height=&quot;50&quot; relative=&quot;1&quot; as=&quot;geometry&quot;&gt;&#10;            &lt;mxPoint x=&quot;1070&quot; y=&quot;870&quot; as=&quot;sourcePoint&quot; /&gt;&#10;            &lt;mxPoint x=&quot;1120&quot; y=&quot;820&quot; as=&quot;targetPoint&quot; /&gt;&#10;          &lt;/mxGeometry&gt;&#10;        &lt;/mxCell&gt;&#10;        &lt;mxCell id=&quot;vbQgPj4sqMXoWMASI0Q5-63&quot; value=&quot;&quot; style=&quot;endArrow=classic;startArrow=classic;html=1;rounded=0;entryX=1;entryY=1;entryDx=0;entryDy=0;&quot; edge=&quot;1&quot; parent=&quot;1&quot; source=&quot;vbQgPj4sqMXoWMASI0Q5-61&quot; target=&quot;vbQgPj4sqMXoWMASI0Q5-34&quot;&gt;&#10;          &lt;mxGeometry width=&quot;50&quot; height=&quot;50&quot; relative=&quot;1&quot; as=&quot;geometry&quot;&gt;&#10;            &lt;mxPoint x=&quot;850&quot; y=&quot;810&quot; as=&quot;sourcePoint&quot; /&gt;&#10;            &lt;mxPoint x=&quot;900&quot; y=&quot;760&quot; as=&quot;targetPoint&quot; /&gt;&#10;          &lt;/mxGeometry&gt;&#10;        &lt;/mxCell&gt;&#10;      &lt;/root&gt;&#10;    &lt;/mxGraphModel&gt;&#10;  &lt;/diagram&gt;&#10;&lt;/mxfile&gt;&#10;"><defs/><g><rect x="0" y="140" width="510" height="320" fill="rgb(255, 255, 255)" stroke="rgb(0, 0, 0)" pointer-events="all"/><rect x="380" y="540" width="510" height="320" fill="rgb(255, 255, 255)" stroke="rgb(0, 0, 0)" pointer-events="all"/><rect x="800" y="140" width="510" height="320" fill="rgb(255, 255, 255)" stroke="rgb(0, 0, 0)" pointer-events="all"/><ellipse cx="225" cy="7.5" rx="7.5" ry="7.5" fill="rgb(255, 255, 255)" stroke="rgb(0, 0, 0)" pointer-events="all"/><path d="M 225 15 L 225 40 M 225 20 L 210 20 M 225 20 L 240 20 M 225 40 L 210 60 M 225 40 L 240 60" fill="none" stroke="rgb(0, 0, 0)" stroke-miterlimit="10" pointer-events="all"/><g transform="translate(-0.5 -0.5)"><switch><foreignObject pointer-events="none" width="100%" height="100%" requiredFeatures="http://www.w3.org/TR/SVG11/feature#Extensibility" style="overflow: visible; text-align: left;"><div xmlns="http://www.w3.org/1999/xhtml" style="display: flex; align-items: unsafe flex-start; justify-content: unsafe center; width: 1px; height: 1px; padding-top: 67px; margin-left: 225px;"><div data-drawio-colors="color: rgb(0, 0, 0); " style="box-sizing: border-box; font-size: 0px; text-align: center;"><div style="display: inline-block; font-size: 12px; font-family: Helvetica; color: rgb(0, 0, 0); line-height: 1.2; pointer-events: all; white-space: nowrap;">Игрок 1</div></div></div></foreignObject><text x="225" y="79" fill="rgb(0, 0, 0)" font-family="Helvetica" font-size="12px" text-anchor="middle">Игрок 1</text></switch></g><ellipse cx="955" cy="7.5" rx="7.5" ry="7.5" fill="rgb(255, 255, 255)" stroke="rgb(0, 0, 0)" pointer-events="all"/><path d="M 955 15 L 955 40 M 955 20 L 940 20 M 955 20 L 970 20 M 955 40 L 940 60 M 955 40 L 970 60" fill="none" stroke="rgb(0, 0, 0)" stroke-miterlimit="10" pointer-events="all"/><g transform="translate(-0.5 -0.5)"><switch><foreignObject pointer-events="none" width="100%" height="100%" requiredFeatures="http://www.w3.org/TR/SVG11/feature#Extensibility" style="overflow: visible; text-align: left;"><div xmlns="http://www.w3.org/1999/xhtml" style="display: flex; align-items: unsafe flex-start; justify-content: unsafe center; width: 1px; height: 1px; padding-top: 67px; margin-left: 955px;"><div data-drawio-colors="color: rgb(0, 0, 0); " style="box-sizing: border-box; font-size: 0px; text-align: center;"><div style="display: inline-block; font-size: 12px; font-family: Helvetica; color: rgb(0, 0, 0); line-height: 1.2; pointer-events: all; white-space: nowrap;">Игрок 2</div></div></div></foreignObject><text x="955" y="79" fill="rgb(0, 0, 0)" font-family="Helvetica" font-size="12px" text-anchor="middle">Игрок 2</text></switch></g><path d="M 1080 555 C 1080 546.72 1129.25 540 1190 540 C 1219.17 540 1247.15 541.58 1267.78 544.39 C 1288.41 547.21 1300 551.02 1300 555 L 1300 825 C 1300 833.28 1250.75 840 1190 840 C 1129.25 840 1080 833.28 1080 825 Z" fill="rgb(255, 255, 255)" stroke="rgb(0, 0, 0)" stroke-miterlimit="10" pointer-events="all"/><path d="M 1300 555 C 1300 563.28 1250.75 570 1190 570 C 1129.25 570 1080 563.28 1080 555" fill="none" stroke="rgb(0, 0, 0)" stroke-miterlimit="10" pointer-events="all"/><g transform="translate(-0.5 -0.5)"><switch><foreignObject pointer-events="none" width="100%" height="100%" requiredFeatures="http://www.w3.org/TR/SVG11/feature#Extensibility" style="overflow: visible; text-align: left;"><div xmlns="http://www.w3.org/1999/xhtml" style="display: flex; align-items: unsafe center; justify-content: unsafe center; width: 218px; height: 1px; padding-top: 703px; margin-left: 1081px;"><div data-drawio-colors="color: rgb(0, 0, 0); " style="box-sizing: border-box; font-size: 0px; text-align: center;"><div style="display: inline-block; font-size: 12px; font-family: Helvetica; color: rgb(0, 0, 0); line-height: 1.2; pointer-events: all; white-space: normal; overflow-wrap: normal;">Хранит учётные данные и рейтинг пользователей, данные сыгранных партий. Чаты с сообщениями. Выдаёт и обновляет всё это по запросу.</div></div></div></foreignObject><text x="1190" y="707" fill="rgb(0, 0, 0)" font-family="Helvetica" font-size="12px" text-anchor="middle">Хранит учётные данные и рейтинг пользователей, данные сыгранных партий. Чаты с сообщениями. Выдаёт и обновляет всё это по запросу.</text></switch></g><rect x="1145" y="580" width="90" height="30" fill="none" stroke="none" pointer-events="all"/><g transform="translate(-0.5 -0.5)"><switch><foreignObject pointer-events="none" width="100%" height="100%" requiredFeatures="http://www.w3.org/TR/SVG11/feature#Extensibility" style="overflow: visible; text-align: left;"><div xmlns="http://www.w3.org/1999/xhtml" style="display: flex; align-items: unsafe center; justify-content: unsafe center; width: 88px; height: 1px; padding-top: 595px; margin-left: 1146px;"><div data-drawio-colors="color: rgb(0, 0, 0); " style="box-sizing: border-box; font-size: 0px; text-align: center;"><div style="display: inline-block; font-size: 12px; font-family: Helvetica; color: rgb(0, 0, 0); line-height: 1.2; pointer-events: all; white-space: normal; overflow-wrap: normal;"><b>Базы данных</b></div></div></div></foreignObject><text x="1190" y="599" fill="rgb(0, 0, 0)" font-family="Helvetica" font-size="12px" text-anchor="middle">Базы данных</text></switch></g><rect x="30" y="320" width="150" height="110" fill="rgb(255, 255, 255)" stroke="rgb(0, 0, 0)" pointer-events="all"/><g transform="translate(-0.5 -0.5)"><switch><foreignObject pointer-events="none" width="100%" height="100%" requiredFeatures="http://www.w3.org/TR/SVG11/feature#Extensibility" style="overflow: visible; text-align: left;"><div xmlns="http://www.w3.org/1999/xhtml" style="display: flex; align-items: unsafe center; justify-content: unsafe center; width: 148px; height: 1px; padding-top: 375px; margin-left: 31px;"><div data-drawio-colors="color: rgb(0, 0, 0); " style="box-sizing: border-box; font-size: 0px; text-align: center;"><div style="display: inline-block; font-size: 12px; font-family: Helvetica; color: rgb(0, 0, 0); line-height: 1.2; pointer-events: all; white-space: normal; overflow-wrap: normal;">Локальное <b>хранилище</b>:<br />сессии; id текущей партии; id оппонента; время начала партии </div></div></div></foreignObject><text x="105" y="379" fill="rgb(0, 0, 0)" font-family="Helvetica" font-size="12px" text-anchor="middle">Локальное хранилище:...</text></switch></g><rect x="30" y="160" width="150" height="110" fill="rgb(255, 255, 255)" stroke="rgb(0, 0, 0)" pointer-events="all"/><g transform="translate(-0.5 -0.5)"><switch><foreignObject pointer-events="none" width="100%" height="100%" requiredFeatures="http://www.w3.org/TR/SVG11/feature#Extensibility" style="overflow: visible; text-align: left;"><div xmlns="http://www.w3.org/1999/xhtml" style="display: flex; align-items: unsafe center; justify-content: unsafe center; width: 148px; height: 1px; padding-top: 215px; margin-left: 31px;"><div data-drawio-colors="color: rgb(0, 0, 0); " style="box-sizing: border-box; font-size: 0px; text-align: center;"><div style="display: inline-block; font-size: 12px; font-family: Helvetica; color: rgb(0, 0, 0); line-height: 1.2; pointer-events: all; white-space: normal; overflow-wrap: normal;"><b>Отрисовщик</b>: игровой доски, чата, имён оппонентов и их символов; итога игры</div></div></div></foreignObject><text x="105" y="219" fill="rgb(0, 0, 0)" font-family="Helvetica" font-size="12px" text-anchor="middle">Отрисовщик: игровой доски, чата, имён оппонентов и их символов; итога игры</text></switch></g><rect x="290" y="160" width="140" height="110" fill="rgb(255, 255, 255)" stroke="rgb(0, 0, 0)" pointer-events="all"/><g transform="translate(-0.5 -0.5)"><switch><foreignObject pointer-events="none" width="100%" height="100%" requiredFeatures="http://www.w3.org/TR/SVG11/feature#Extensibility" style="overflow: visible; text-align: left;"><div xmlns="http://www.w3.org/1999/xhtml" style="display: flex; align-items: unsafe center; justify-content: unsafe center; width: 138px; height: 1px; padding-top: 215px; margin-left: 291px;"><div data-drawio-colors="color: rgb(0, 0, 0); " style="box-sizing: border-box; font-size: 0px; text-align: center;"><div style="display: inline-block; font-size: 12px; font-family: Helvetica; color: rgb(0, 0, 0); line-height: 1.2; pointer-events: all; white-space: normal; overflow-wrap: normal;"><b>Преобразователь</b>:<br />нажатий на клетки - в коды ходов; набранных в чате сообщений - в структурированный формат</div></div></div></foreignObject><text x="360" y="219" fill="rgb(0, 0, 0)" font-family="Helvetica" font-size="12px" text-anchor="middle">Преобразователь:...</text></switch></g><rect x="290" y="320" width="140" height="110" fill="rgb(255, 255, 255)" stroke="rgb(0, 0, 0)" pointer-events="all"/><g transform="translate(-0.5 -0.5)"><switch><foreignObject pointer-events="none" width="100%" height="100%" requiredFeatures="http://www.w3.org/TR/SVG11/feature#Extensibility" style="overflow: visible; text-align: left;"><div xmlns="http://www.w3.org/1999/xhtml" style="display: flex; align-items: unsafe center; justify-content: unsafe center; width: 138px; height: 1px; padding-top: 375px; margin-left: 291px;"><div data-drawio-colors="color: rgb(0, 0, 0); " style="box-sizing: border-box; font-size: 0px; text-align: center;"><div style="display: inline-block; font-size: 12px; font-family: Helvetica; color: rgb(0, 0, 0); line-height: 1.2; pointer-events: all; white-space: normal; overflow-wrap: normal;"><b>Связист</b>:<br /> держит связь с сервером. А через сервер и особые технологии - с другим игроком</div></div></div></foreignObject><text x="360" y="379" fill="rgb(0, 0, 0)" font-family="Helvetica" font-size="12px" text-anchor="middle">Связист:...</text></switch></g><path d="M 260 70 L 324.82 116.3" fill="none" stroke="rgb(0, 0, 0)" stroke-miterlimit="10" pointer-events="stroke"/><path d="M 329.09 119.35 L 321.36 118.13 L 324.82 116.3 L 325.43 112.43 Z" fill="rgb(0, 0, 0)" stroke="rgb(0, 0, 0)" stroke-miterlimit="10" pointer-events="all"/><g transform="translate(-0.5 -0.5)"><switch><foreignObject pointer-events="none" width="100%" height="100%" requiredFeatures="http://www.w3.org/TR/SVG11/feature#Extensibility" style="overflow: visible; text-align: left;"><div xmlns="http://www.w3.org/1999/xhtml" style="display: flex; align-items: unsafe center; justify-content: unsafe center; width: 1px; height: 1px; padding-top: 105px; margin-left: 309px;"><div data-drawio-colors="color: rgb(0, 0, 0); background-color: rgb(255, 255, 255); " style="box-sizing: border-box; font-size: 0px; text-align: center;"><div style="display: inline-block; font-size: 11px; font-family: Helvetica; color: rgb(0, 0, 0); line-height: 1.2; pointer-events: all; background-color: rgb(255, 255, 255); white-space: nowrap;">Ввод</div></div></div></foreignObject><text x="309" y="109" fill="rgb(0, 0, 0)" font-family="Helvetica" font-size="11px" text-anchor="middle">Ввод</text></switch></g><path d="M 140 130 L 185.5 84.5" fill="none" stroke="rgb(0, 0, 0)" stroke-miterlimit="10" pointer-events="stroke"/><path d="M 189.21 80.79 L 186.73 88.22 L 185.5 84.5 L 181.78 83.27 Z" fill="rgb(0, 0, 0)" stroke="rgb(0, 0, 0)" stroke-miterlimit="10" pointer-events="all"/><g transform="translate(-0.5 -0.5)"><switch><foreignObject pointer-events="none" width="100%" height="100%" requiredFeatures="http://www.w3.org/TR/SVG11/feature#Extensibility" style="overflow: visible; text-align: left;"><div xmlns="http://www.w3.org/1999/xhtml" style="display: flex; align-items: unsafe center; justify-content: unsafe center; width: 1px; height: 1px; padding-top: 109px; margin-left: 162px;"><div data-drawio-colors="color: rgb(0, 0, 0); background-color: rgb(255, 255, 255); " style="box-sizing: border-box; font-size: 0px; text-align: center;"><div style="display: inline-block; font-size: 11px; font-family: Helvetica; color: rgb(0, 0, 0); line-height: 1.2; pointer-events: all; background-color: rgb(255, 255, 255); white-space: nowrap;">Вывод</div></div></div></foreignObject><text x="162" y="112" fill="rgb(0, 0, 0)" font-family="Helvetica" font-size="11px" text-anchor="middle">Вывод</text></switch></g><rect x="180" y="110" width="105" height="30" fill="none" stroke="none" pointer-events="all"/><g transform="translate(-0.5 -0.5)"><switch><foreignObject pointer-events="none" width="100%" height="100%" requiredFeatures="http://www.w3.org/TR/SVG11/feature#Extensibility" style="overflow: visible; text-align: left;"><div xmlns="http://www.w3.org/1999/xhtml" style="display: flex; align-items: unsafe center; justify-content: unsafe center; width: 103px; height: 1px; padding-top: 125px; margin-left: 181px;"><div data-drawio-colors="color: rgb(0, 0, 0); " style="box-sizing: border-box; font-size: 0px; text-align: center;"><div style="display: inline-block; font-size: 12px; font-family: Helvetica; color: rgb(0, 0, 0); line-height: 1.2; pointer-events: all; white-space: normal; overflow-wrap: normal;">Б Р А У З Е Р</div></div></div></foreignObject><text x="233" y="129" fill="rgb(0, 0, 0)" font-family="Helvetica" font-size="12px" text-anchor="middle">Б Р А У З Е Р</text></switch></g><rect x="990" y="110" width="105" height="30" fill="none" stroke="none" pointer-events="all"/><g transform="translate(-0.5 -0.5)"><switch><foreignObject pointer-events="none" width="100%" height="100%" requiredFeatures="http://www.w3.org/TR/SVG11/feature#Extensibility" style="overflow: visible; text-align: left;"><div xmlns="http://www.w3.org/1999/xhtml" style="display: flex; align-items: unsafe center; justify-content: unsafe center; width: 103px; height: 1px; padding-top: 125px; margin-left: 991px;"><div data-drawio-colors="color: rgb(0, 0, 0); " style="box-sizing: border-box; font-size: 0px; text-align: center;"><div style="display: inline-block; font-size: 12px; font-family: Helvetica; color: rgb(0, 0, 0); line-height: 1.2; pointer-events: all; white-space: normal; overflow-wrap: normal;">Б Р А У З Е Р</div></div></div></foreignObject><text x="1043" y="129" fill="rgb(0, 0, 0)" font-family="Helvetica" font-size="12px" text-anchor="middle">Б Р А У З Е Р</text></switch></g><path d="M 564.91 556.18 L 415.09 443.82" fill="none" stroke="rgb(0, 0, 0)" stroke-miterlimit="10" pointer-events="stroke"/><path d="M 569.11 559.33 L 561.41 557.93 L 564.91 556.18 L 565.61 552.33 Z" fill="rgb(0, 0, 0)" stroke="rgb(0, 0, 0)" stroke-miterlimit="10" pointer-events="all"/><path d="M 410.89 440.67 L 418.59 442.07 L 415.09 443.82 L 414.39 447.67 Z" fill="rgb(0, 0, 0)" stroke="rgb(0, 0, 0)" stroke-miterlimit="10" pointer-events="all"/><rect x="570" y="560" width="115" height="80" fill="rgb(255, 255, 255)" stroke="rgb(0, 0, 0)" pointer-events="all"/><g transform="translate(-0.5 -0.5)"><switch><foreignObject pointer-events="none" width="100%" height="100%" requiredFeatures="http://www.w3.org/TR/SVG11/feature#Extensibility" style="overflow: visible; text-align: left;"><div xmlns="http://www.w3.org/1999/xhtml" style="display: flex; align-items: unsafe center; justify-content: unsafe center; width: 113px; height: 1px; padding-top: 600px; margin-left: 571px;"><div data-drawio-colors="color: rgb(0, 0, 0); " style="box-sizing: border-box; font-size: 0px; text-align: center;"><div style="display: inline-block; font-size: 12px; font-family: Helvetica; color: rgb(0, 0, 0); line-height: 1.2; pointer-events: all; white-space: normal; overflow-wrap: normal;"><b>Связист</b>:<br /> держит связь с браузерами обоих пользователей</div></div></div></foreignObject><text x="628" y="604" fill="rgb(0, 0, 0)" font-family="Helvetica" font-size="12px" text-anchor="middle">Связист:...</text></switch></g><path d="M 360 270 L 360 313.63" fill="none" stroke="rgb(0, 0, 0)" stroke-miterlimit="10" pointer-events="stroke"/><path d="M 360 318.88 L 356.5 311.88 L 360 313.63 L 363.5 311.88 Z" fill="rgb(0, 0, 0)" stroke="rgb(0, 0, 0)" stroke-miterlimit="10" pointer-events="all"/><path d="M 290 320 L 185.8 272.64" fill="none" stroke="rgb(0, 0, 0)" stroke-miterlimit="10" pointer-events="stroke"/><path d="M 181.02 270.46 L 188.84 270.17 L 185.8 272.64 L 185.94 276.55 Z" fill="rgb(0, 0, 0)" stroke="rgb(0, 0, 0)" stroke-miterlimit="10" pointer-events="all"/><rect x="940" y="285" width="210" height="30" fill="none" stroke="none" pointer-events="all"/><g transform="translate(-0.5 -0.5)"><switch><foreignObject pointer-events="none" width="100%" height="100%" requiredFeatures="http://www.w3.org/TR/SVG11/feature#Extensibility" style="overflow: visible; text-align: left;"><div xmlns="http://www.w3.org/1999/xhtml" style="display: flex; align-items: unsafe center; justify-content: unsafe center; width: 208px; height: 1px; padding-top: 300px; margin-left: 941px;"><div data-drawio-colors="color: rgb(0, 0, 0); " style="box-sizing: border-box; font-size: 0px; text-align: center;"><div style="display: inline-block; font-size: 12px; font-family: Helvetica; color: rgb(0, 0, 0); line-height: 1.2; pointer-events: all; white-space: normal; overflow-wrap: normal;">Здесь всё то же, что и у Игрока 1 ...</div></div></div></foreignObject><text x="1045" y="304" fill="rgb(0, 0, 0)" font-family="Helvetica" font-size="12px" text-anchor="middle">Здесь всё то же, что и у Игрока 1 ...</text></switch></g><rect x="598" y="510" width="82" height="30" fill="none" stroke="none" pointer-events="all"/><g transform="translate(-0.5 -0.5)"><switch><foreignObject pointer-events="none" width="100%" height="100%" requiredFeatures="http://www.w3.org/TR/SVG11/feature#Extensibility" style="overflow: visible; text-align: left;"><div xmlns="http://www.w3.org/1999/xhtml" style="display: flex; align-items: unsafe center; justify-content: unsafe center; width: 80px; height: 1px; padding-top: 525px; margin-left: 599px;"><div data-drawio-colors="color: rgb(0, 0, 0); " style="box-sizing: border-box; font-size: 0px; text-align: center;"><div style="display: inline-block; font-size: 12px; font-family: Helvetica; color: rgb(0, 0, 0); line-height: 1.2; pointer-events: all; white-space: normal; overflow-wrap: normal;">С Е Р В Е Р</div></div></div></foreignObject><text x="639" y="529" fill="rgb(0, 0, 0)" font-family="Helvetica" font-size="12px" text-anchor="middle">С Е Р В Е Р</text></switch></g><path d="M 684.89 555.92 L 795.11 464.08" fill="none" stroke="rgb(0, 0, 0)" stroke-miterlimit="10" pointer-events="stroke"/><path d="M 680.86 559.28 L 684 552.11 L 684.89 555.92 L 688.48 557.49 Z" fill="rgb(0, 0, 0)" stroke="rgb(0, 0, 0)" stroke-miterlimit="10" pointer-events="all"/><path d="M 799.14 460.72 L 796 467.89 L 795.11 464.08 L 791.52 462.51 Z" fill="rgb(0, 0, 0)" stroke="rgb(0, 0, 0)" stroke-miterlimit="10" pointer-events="all"/><rect x="720" y="560" width="130" height="80" fill="rgb(255, 255, 255)" stroke="rgb(0, 0, 0)" pointer-events="all"/><g transform="translate(-0.5 -0.5)"><switch><foreignObject pointer-events="none" width="100%" height="100%" requiredFeatures="http://www.w3.org/TR/SVG11/feature#Extensibility" style="overflow: visible; text-align: left;"><div xmlns="http://www.w3.org/1999/xhtml" style="display: flex; align-items: unsafe center; justify-content: unsafe center; width: 128px; height: 1px; padding-top: 600px; margin-left: 721px;"><div data-drawio-colors="color: rgb(0, 0, 0); " style="box-sizing: border-box; font-size: 0px; text-align: center;"><div style="display: inline-block; font-size: 12px; font-family: Helvetica; color: rgb(0, 0, 0); line-height: 1.2; pointer-events: all; white-space: normal; overflow-wrap: normal;"><b>Логинщик</b>: проверяет введённые учётные данные; раздаёт временные пропуска (сессии)</div></div></div></foreignObject><text x="785" y="604" fill="rgb(0, 0, 0)" font-family="Helvetica" font-size="12px" text-anchor="middle">Логинщик: проверяет введённые учётные данные; раздаёт временные пропуска (сессии)</text></switch></g><path d="M 856.24 601.26 L 1070.46 644.64" fill="none" stroke="rgb(0, 0, 0)" stroke-miterlimit="10" pointer-events="stroke"/><path d="M 851.1 600.22 L 858.65 598.18 L 856.24 601.26 L 857.26 605.04 Z" fill="rgb(0, 0, 0)" stroke="rgb(0, 0, 0)" stroke-miterlimit="10" pointer-events="all"/><path d="M 1075.6 645.68 L 1068.05 647.72 L 1070.46 644.64 L 1069.44 640.86 Z" fill="rgb(0, 0, 0)" stroke="rgb(0, 0, 0)" stroke-miterlimit="10" pointer-events="all"/><path d="M 696.37 610 L 713.63 610" fill="none" stroke="rgb(0, 0, 0)" stroke-miterlimit="10" pointer-events="stroke"/><path d="M 691.12 610 L 698.12 606.5 L 696.37 610 L 698.12 613.5 Z" fill="rgb(0, 0, 0)" stroke="rgb(0, 0, 0)" stroke-miterlimit="10" pointer-events="all"/><path d="M 718.88 610 L 711.88 613.5 L 713.63 610 L 711.88 606.5 Z" fill="rgb(0, 0, 0)" stroke="rgb(0, 0, 0)" stroke-miterlimit="10" pointer-events="all"/><path d="M 105 320 L 105 276.37" fill="none" stroke="rgb(0, 0, 0)" stroke-miterlimit="10" pointer-events="stroke"/><path d="M 105 271.12 L 108.5 278.12 L 105 276.37 L 101.5 278.12 Z" fill="rgb(0, 0, 0)" stroke="rgb(0, 0, 0)" stroke-miterlimit="10" pointer-events="all"/><path d="M 186.37 375 L 283.63 375" fill="none" stroke="rgb(0, 0, 0)" stroke-miterlimit="10" pointer-events="stroke"/><path d="M 181.12 375 L 188.12 371.5 L 186.37 375 L 188.12 378.5 Z" fill="rgb(0, 0, 0)" stroke="rgb(0, 0, 0)" stroke-miterlimit="10" pointer-events="all"/><path d="M 288.88 375 L 281.88 378.5 L 283.63 375 L 281.88 371.5 Z" fill="rgb(0, 0, 0)" stroke="rgb(0, 0, 0)" stroke-miterlimit="10" pointer-events="all"/><rect x="570" y="680" width="130" height="80" fill="rgb(255, 255, 255)" stroke="rgb(0, 0, 0)" pointer-events="all"/><g transform="translate(-0.5 -0.5)"><switch><foreignObject pointer-events="none" width="100%" height="100%" requiredFeatures="http://www.w3.org/TR/SVG11/feature#Extensibility" style="overflow: visible; text-align: left;"><div xmlns="http://www.w3.org/1999/xhtml" style="display: flex; align-items: unsafe center; justify-content: unsafe center; width: 128px; height: 1px; padding-top: 720px; margin-left: 571px;"><div data-drawio-colors="color: rgb(0, 0, 0); " style="box-sizing: border-box; font-size: 0px; text-align: center;"><div style="display: inline-block; font-size: 12px; font-family: Helvetica; color: rgb(0, 0, 0); line-height: 1.2; pointer-events: all; white-space: normal; overflow-wrap: normal;"><b>Распорядитель игрового зала</b>: кто свободен; кто кому предложил сыграть, кто согласился</div></div></div></foreignObject><text x="635" y="724" fill="rgb(0, 0, 0)" font-family="Helvetica" font-size="12px" text-anchor="middle">Распорядитель игрового зала: кто свободен; кто кому предложил сыграть, кто согласился</text></switch></g><path d="M 785 640 L 641.15 678.36" fill="none" stroke="rgb(0, 0, 0)" stroke-miterlimit="10" pointer-events="stroke"/><path d="M 636.08 679.71 L 641.94 674.53 L 641.15 678.36 L 643.75 681.29 Z" fill="rgb(0, 0, 0)" stroke="rgb(0, 0, 0)" stroke-miterlimit="10" pointer-events="all"/><path d="M 626.93 671.23 L 627.38 646.37" fill="none" stroke="rgb(0, 0, 0)" stroke-miterlimit="10" pointer-events="stroke"/><path d="M 626.83 676.48 L 623.46 669.42 L 626.93 671.23 L 630.46 669.55 Z" fill="rgb(0, 0, 0)" stroke="rgb(0, 0, 0)" stroke-miterlimit="10" pointer-events="all"/><path d="M 627.48 641.12 L 630.85 648.18 L 627.38 646.37 L 623.85 648.05 Z" fill="rgb(0, 0, 0)" stroke="rgb(0, 0, 0)" stroke-miterlimit="10" pointer-events="all"/><path d="M 706.36 719.67 L 1069.24 701.13" fill="none" stroke="rgb(0, 0, 0)" stroke-miterlimit="10" pointer-events="stroke"/><path d="M 701.12 719.94 L 707.93 716.09 L 706.36 719.67 L 708.29 723.08 Z" fill="rgb(0, 0, 0)" stroke="rgb(0, 0, 0)" stroke-miterlimit="10" pointer-events="all"/><path d="M 1074.48 700.86 L 1067.67 704.71 L 1069.24 701.13 L 1067.31 697.72 Z" fill="rgb(0, 0, 0)" stroke="rgb(0, 0, 0)" stroke-miterlimit="10" pointer-events="all"/><rect x="410" y="550" width="100" height="260" fill="rgb(255, 255, 255)" stroke="rgb(0, 0, 0)" pointer-events="all"/><g transform="translate(-0.5 -0.5)"><switch><foreignObject pointer-events="none" width="100%" height="100%" requiredFeatures="http://www.w3.org/TR/SVG11/feature#Extensibility" style="overflow: visible; text-align: left;"><div xmlns="http://www.w3.org/1999/xhtml" style="display: flex; align-items: unsafe center; justify-content: unsafe center; width: 98px; height: 1px; padding-top: 680px; margin-left: 411px;"><div data-drawio-colors="color: rgb(0, 0, 0); " style="box-sizing: border-box; font-size: 0px; text-align: center;"><div style="display: inline-block; font-size: 12px; font-family: Helvetica; color: rgb(0, 0, 0); line-height: 1.2; pointer-events: all; white-space: normal; overflow-wrap: normal;"><b>Оператор конкретной партии</b> (по количеству играемых в данный момент партий): принимает ходы; обрабатывает ситуацию на доске; передаёт очерёдность хода; объявляет о завершении и итоге; обновляет базы данных по итогу партии</div></div></div></foreignObject><text x="460" y="684" fill="rgb(0, 0, 0)" font-family="Helvetica" font-size="12px" text-anchor="middle">Оператор конкретной партии (по количеству играемых в данный момент партий): принимает ходы;...</text></switch></g><path d="M 570 713.69 L 518.64 708.7" fill="none" stroke="rgb(0, 0, 0)" stroke-miterlimit="10" pointer-events="stroke"/><path d="M 513.41 708.19 L 520.72 705.38 L 518.64 708.7 L 520.04 712.35 Z" fill="rgb(0, 0, 0)" stroke="rgb(0, 0, 0)" stroke-miterlimit="10" pointer-events="all"/><path d="M 516.02 628.65 L 564.38 602.99" fill="none" stroke="rgb(0, 0, 0)" stroke-miterlimit="10" pointer-events="stroke"/><path d="M 511.39 631.12 L 515.93 624.74 L 516.02 628.65 L 519.21 630.92 Z" fill="rgb(0, 0, 0)" stroke="rgb(0, 0, 0)" stroke-miterlimit="10" pointer-events="all"/><path d="M 569.01 600.52 L 564.47 606.9 L 564.38 602.99 L 561.19 600.72 Z" fill="rgb(0, 0, 0)" stroke="rgb(0, 0, 0)" stroke-miterlimit="10" pointer-events="all"/><path d="M 517.77 794.19 L 1071.21 798.85" fill="none" stroke="rgb(0, 0, 0)" stroke-miterlimit="10" pointer-events="stroke"/><path d="M 512.52 794.15 L 519.55 790.71 L 517.77 794.19 L 519.49 797.71 Z" fill="rgb(0, 0, 0)" stroke="rgb(0, 0, 0)" stroke-miterlimit="10" pointer-events="all"/><path d="M 1076.46 798.89 L 1069.43 802.33 L 1071.21 798.85 L 1069.49 795.33 Z" fill="rgb(0, 0, 0)" stroke="rgb(0, 0, 0)" stroke-miterlimit="10" pointer-events="all"/><rect x="790" y="730" width="70" height="40" fill="rgb(255, 255, 255)" stroke="rgb(0, 0, 0)" pointer-events="all"/><g transform="translate(-0.5 -0.5)"><switch><foreignObject pointer-events="none" width="100%" height="100%" requiredFeatures="http://www.w3.org/TR/SVG11/feature#Extensibility" style="overflow: visible; text-align: left;"><div xmlns="http://www.w3.org/1999/xhtml" style="display: flex; align-items: unsafe center; justify-content: unsafe center; width: 68px; height: 1px; padding-top: 750px; margin-left: 791px;"><div data-drawio-colors="color: rgb(0, 0, 0); " style="box-sizing: border-box; font-size: 0px; text-align: center;"><div style="display: inline-block; font-size: 12px; font-family: Helvetica; color: rgb(0, 0, 0); line-height: 1.2; pointer-events: all; white-space: normal; overflow-wrap: normal;">Обработчик <b>сообщений</b></div></div></div></foreignObject><text x="825" y="754" fill="rgb(0, 0, 0)" font-family="Helvetica" font-size="12px" text-anchor="middle">Обработчик сообщений</text></switch></g><path d="M 798.8 725.67 L 689.67 624.33" fill="none" stroke="rgb(0, 0, 0)" stroke-miterlimit="10" pointer-events="stroke"/><path d="M 802.64 729.24 L 795.13 727.04 L 798.8 725.67 L 799.89 721.91 Z" fill="rgb(0, 0, 0)" stroke="rgb(0, 0, 0)" stroke-miterlimit="10" pointer-events="all"/><path d="M 685.82 620.76 L 693.33 622.96 L 689.67 624.33 L 688.57 628.09 Z" fill="rgb(0, 0, 0)" stroke="rgb(0, 0, 0)" stroke-miterlimit="10" pointer-events="all"/><path d="M 866.37 748.87 L 1072.09 743.27" fill="none" stroke="rgb(0, 0, 0)" stroke-miterlimit="10" pointer-events="stroke"/><path d="M 861.12 749.02 L 868.02 745.33 L 866.37 748.87 L 868.21 752.32 Z" fill="rgb(0, 0, 0)" stroke="rgb(0, 0, 0)" stroke-miterlimit="10" pointer-events="all"/><path d="M 1077.34 743.13 L 1070.44 746.82 L 1072.09 743.27 L 1070.25 739.82 Z" fill="rgb(0, 0, 0)" stroke="rgb(0, 0, 0)" stroke-miterlimit="10" pointer-events="all"/><rect x="720" y="800" width="120" height="60" fill="rgb(255, 255, 255)" stroke="rgb(0, 0, 0)" pointer-events="all"/><g transform="translate(-0.5 -0.5)"><switch><foreignObject pointer-events="none" width="100%" height="100%" requiredFeatures="http://www.w3.org/TR/SVG11/feature#Extensibility" style="overflow: visible; text-align: left;"><div xmlns="http://www.w3.org/1999/xhtml" style="display: flex; align-items: unsafe center; justify-content: unsafe center; width: 118px; height: 1px; padding-top: 830px; margin-left: 721px;"><div data-drawio-colors="color: rgb(0, 0, 0); " style="box-sizing: border-box; font-size: 0px; text-align: center;"><div style="display: inline-block; font-size: 12px; font-family: Helvetica; color: rgb(0, 0, 0); line-height: 1.2; pointer-events: all; white-space: normal; overflow-wrap: normal;">Обработчик страниц <b>рейтинга</b> игроков и сыгранных партий</div></div></div></foreignObject><text x="780" y="834" fill="rgb(0, 0, 0)" font-family="Helvetica" font-size="12px" text-anchor="middle">Обработчик страниц рейтинга игроков и сыгранных партий</text></switch></g><path d="M 846.36 829.64 L 1072.1 816.96" fill="none" stroke="rgb(0, 0, 0)" stroke-miterlimit="10" pointer-events="stroke"/><path d="M 841.12 829.94 L 847.91 826.05 L 846.36 829.64 L 848.3 833.04 Z" fill="rgb(0, 0, 0)" stroke="rgb(0, 0, 0)" stroke-miterlimit="10" pointer-events="all"/><path d="M 1077.34 816.66 L 1070.55 820.55 L 1072.1 816.96 L 1070.16 813.56 Z" fill="rgb(0, 0, 0)" stroke="rgb(0, 0, 0)" stroke-miterlimit="10" pointer-events="all"/><path d="M 762.15 794.3 L 687.85 645.7" fill="none" stroke="rgb(0, 0, 0)" stroke-miterlimit="10" pointer-events="stroke"/><path d="M 764.5 799 L 758.24 794.3 L 762.15 794.3 L 764.5 791.17 Z" fill="rgb(0, 0, 0)" stroke="rgb(0, 0, 0)" stroke-miterlimit="10" pointer-events="all"/><path d="M 685.5 641 L 691.76 645.7 L 687.85 645.7 L 685.5 648.83 Z" fill="rgb(0, 0, 0)" stroke="rgb(0, 0, 0)" stroke-miterlimit="10" pointer-events="all"/></g><switch><g requiredFeatures="http://www.w3.org/TR/SVG11/feature#Extensibility"/><a transform="translate(0,-5)" xlink:href="https://www.diagrams.net/doc/faq/svg-export-text-problems" target="_blank"><text text-anchor="middle" font-size="10px" x="50%" y="100%">Text is not SVG - cannot display</text></a></switch></svg>